{
  "development": {
    "username": "root",
    "password": "root",
    "database": "mmartan_dev",
    "host": "db",
    "dialect": "mysql",
    "logging": false,
    "timezone" : "-03:00",
    "migrationStorage": "json",
    "migrationStoragePath": "config/sequelizeMeta.json",
    "seederStorage": "json",
    "seederStoragePath": "config/sequelizeData.json"
  },
  "test": {
    "username": "root",
    "password": "root",
    "database": "mmartan_test",
    "host": "db",
    "dialect": "mysql",
    "logging": false,
    "timezone" : "-03:00",
    "migrationStorage": "json",
    "migrationStoragePath": "config/sequelizeMeta.json",
    "seederStorage": "json",
    "seederStoragePath": "config/sequelizeData.json"
  },
  "production": {
    "username": "root",
    "password": "root1234",
    "database": "mmartan",
    "host": "ammo-varejo-test.csmt3mg8yzd5.sa-east-1.rds.amazonaws.com",
    "dialect": "mysql",
    "logging": false,
    "timezone" : "-03:00",
    "migrationStorage": "json",
    "migrationStoragePath": "config/sequelizeMeta.json",
    "seederStorage": "json",
    "seederStoragePath": "config/sequelizeData.json"
  }
}
